{
    "name": "source", 
    "type": "DKDataSource_PostgreSQL", 
    "config-ref": "redshiftConfig", 
    "keys": {
        "delete_demo_superstore_sales_table": {
            "sql": "SET search_path TO {{redshiftConfig.schema}};\n\nDROP TABLE if exists demo_superstore_sales CASCADE;\n\nSELECT 1;", 
            "query-type": "execute_scalar"
        }

    }

}
